{
    "name": "Tests",
    "rootNamespace": "",
    "references": [
        "UnityEngine.TestRunner",
        "UnityEditor.TestRunner",
        "GameAssembly",
        "BarrelMovementAssembly",
        "BoundfoxStudios.FluentAssertions"
    ],
    "includePlatforms": [],
    "excludePlatforms": [],
    "allowUnsafeCode": false,
    "overrideReferences": true,
    "precompiledReferences": [
        "nunit.framework.dll",
        "Castle.Core.dll",
        "Moq.dll",
        "System.Runtime.CompilerServices.Unsafe.dll",
        "System.Threading.Tasks.Extensions.dll"
    ],
    "autoReferenced": false,
    "defineConstraints": [
        "UNITY_INCLUDE_TESTS"
    ],
    "versionDefines": [],
    "noEngineReferences": false
}